args[1] 5
args[2] 5
args[3] zklf
Master: [allocate_mem] function
[*] Slave no. 1 has been received init_msg.hash: 4ef86321c1a7f0f354b297e8914ab240 init_msg.pwd_len_slaves: 4 init_msg.charset: zklf 
[*] Slave no. 2 has been received init_msg.hash: 4ef86321c1a7f0f354b297e8914ab240 init_msg.pwd_len_slaves: 4 init_msg.charset: zklf 
args[1] 4
args[2] 4
args[3] zklf
args[1] 4
args[2] 4
args[3] zklf
Slave: [allocate_mem] function
Slave: [allocate_mem] function
plainpwds[0] zzzz
plainpwds[1] zzzk
plainpwds[2] zzzl
plainpwds[3] zzzf
plainpwds[4] zzkz
plainpwds[5] zzkk
plainpwds[6] zzkl
plainpwds[7] zzkf
plainpwds[8] zzlz
plainpwds[9] zzlk
plainpwds[10] zzll
plainpwds[11] zzlf
plainpwds[12] zzfz
plainpwds[13] zzfk
plainpwds[14] zzfl
plainpwds[15] zzff
plainpwds[16] zkzz
plainpwds[17] zkzk
plainpwds[18] zkzl
plainpwds[19] zkzf
plainpwds[20] zkkz
plainpwds[21] zkkk
plainpwds[22] zkkl
plainpwds[23] zkkf
plainpwds[24] zklz
plainpwds[25] zklk
plainpwds[26] zkll
plainpwds[27] zklf
plainpwds[28] zkfz
plainpwds[29] zkfk
plainpwds[30] zkfl
plainpwds[31] zkff
plainpwds[32] zlzz
plainpwds[33] zlzk
plainpwds[34] zlzl
plainpwds[35] zlzf
plainpwds[36] zlkz
plainpwds[37] zlkk
plainpwds[38] zlkl
plainpwds[39] zlkf
plainpwds[40] zllz
plainpwds[41] zllk
plainpwds[42] zlll
plainpwds[43] zllf
plainpwds[44] zlfz
plainpwds[45] zlfk
plainpwds[46] zlfl
plainpwds[47] zlff
plainpwds[48] zfzz
plainpwds[49] zfzk
plainpwds[50] zfzl
plainpwds[51] zfzf
plainpwds[52] zfkz
plainpwds[53] zfkk
plainpwds[54] zfkl
plainpwds[55] zfkf
plainpwds[56] zflz
plainpwds[57] zflk
plainpwds[58] zfll
plainpwds[59] zflf
plainpwds[60] zffz
plainpwds[61] zffk
plainpwds[62] zffl
plainpwds[63] zfff
plainpwds[64] kzzz
plainpwds[65] kzzk
plainpwds[66] kzzl
plainpwds[67] kzzf
plainpwds[68] kzkz
plainpwds[69] kzkk
plainpwds[70] kzkl
plainpwds[71] kzkf
plainpwds[72] kzlz
plainpwds[73] kzlk
plainpwds[74] kzll
plainpwds[75] kzlf
plainpwds[76] kzfz
plainpwds[77] kzfk
plainpwds[78] kzfl
plainpwds[79] kzff
plainpwds[80] kkzz
plainpwds[81] kkzk
plainpwds[82] kkzl
plainpwds[83] kkzf
plainpwds[84] kkkz
plainpwds[85] kkkk
plainpwds[86] kkkl
plainpwds[87] kkkf
plainpwds[88] kklz
plainpwds[89] kklk
plainpwds[90] kkll
plainpwds[91] kklf
plainpwds[92] kkfz
plainpwds[93] kkfk
plainpwds[94] kkfl
plainpwds[95] kkff
plainpwds[96] klzz
plainpwds[97] klzk
plainpwds[98] klzl
plainpwds[99] klzf
plainpwds[100] klkz
plainpwds[101] klkk
plainpwds[102] klkl
plainpwds[103] klkf
plainpwds[104] kllz
plainpwds[105] kllk
plainpwds[106] klll
plainpwds[107] kllf
plainpwds[108] klfz
plainpwds[109] klfk
plainpwds[110] klfl
plainpwds[111] klff
plainpwds[112] kfzz
plainpwds[113] kfzk
plainpwds[114] kfzl
plainpwds[115] kfzf
plainpwds[116] kfkz
plainpwds[117] kfkk
plainpwds[118] kfkl
plainpwds[119] kfkf
plainpwds[0] zzzz
plainpwds[1] zzzk
plainpwds[2] zzzl
plainpwds[3] zzzf
plainpwds[4] zzkz
plainpwds[5] zzkk
plainpwds[6] zzkl
plainpwds[7] zzkf
plainpwds[8] zzlz
plainpwds[9] zzlk
plainpwds[10] zzll
plainpwds[11] zzlf
plainpwds[12] zzfz
plainpwds[13] zzfk
plainpwds[14] zzfl
plainpwds[15] zzff
plainpwds[16] zkzz
plainpwds[17] zkzk
plainpwds[18] zkzl
plainpwds[19] zkzf
plainpwds[20] zkkz
plainpwds[21] zkkk
plainpwds[22] zkkl
plainpwds[23] zkkf
plainpwds[24] zklz
plainpwds[25] zklk
plainpwds[26] zkll
plainpwds[27] zklf
plainpwds[28] zkfz
plainpwds[29] zkfk
plainpwds[30] zkfl
plainpwds[31] zkff
plainpwds[32] zlzz
plainpwds[33] zlzk
plainpwds[34] zlzl
plainpwds[35] zlzf
plainpwds[36] zlkz
plainpwds[37] zlkk
plainpwds[38] zlkl
plainpwds[39] zlkf
plainpwds[40] zllz
plainpwds[41] zllk
plainpwds[42] zlll
plainpwds[43] zllf
plainpwds[44] zlfz
plainpwds[45] zlfk
plainpwds[46] zlfl
plainpwds[47] zlff
plainpwds[48] zfzz
plainpwds[49] zfzk
plainpwds[50] zfzl
plainpwds[51] zfzf
plainpwds[52] zfkz
plainpwds[53] zfkk
plainpwds[54] zfkl
plainpwds[55] zfkf
plainpwds[56] zflz
plainpwds[57] zflk
plainpwds[58] zfll
plainpwds[59] zflf
plainpwds[60] zffz
plainpwds[61] zffk
plainpwds[62] zffl
plainpwds[63] zfff
plainpwds[64] kzzz
plainpwds[65] kzzk
plainpwds[66] kzzl
plainpwds[67] kzzf
plainpwds[68] kzkz
plainpwds[69] kzkk
plainpwds[70] kzkl
plainpwds[71] kzkf
plainpwds[72] kzlz
plainpwds[73] kzlk
plainpwds[74] kzll
plainpwds[75] kzlf
plainpwds[76] kzfz
plainpwds[77] kzfk
plainpwds[78] kzfl
plainpwds[79] kzff
plainpwds[80] kkzz
plainpwds[81] kkzk
plainpwds[82] kkzl
plainpwds[83] kkzf
plainpwds[84] kkkz
plainpwds[85] kkkk
plainpwds[86] kkkl
plainpwds[87] kkkf
plainpwds[88] kklz
plainpwds[89] kklk
plainpwds[90] kkll
plainpwds[91] kklf
plainpwds[92] kkfz
plainpwds[93] kkfk
plainpwds[94] kkfl
plainpwds[95] kkff
plainpwds[96] klzz
plainpwds[97] klzk
plainpwds[98] klzl
plainpwds[99] klzf
plainpwds[100] klkz
plainpwds[101] klkk
plainpwds[102] klkl
plainpwds[103] klkf
plainpwds[104] kllz
plainpwds[105] kllk
plainpwds[106] klll
plainpwds[107] kllf
plainpwds[108] klfz
plainpwds[109] klfk
plainpwds[110] klfl
plainpwds[111] klff
plainpwds[112] kfzz
plainpwds[113] kfzk
plainpwds[114] kfzl
plainpwds[115] kfzf
plainpwds[116] kfkz
plainpwds[117] kfkk
plainpwds[118] kfkl
plainpwds[119] kfkf
plainpwds[120] kflz
plainpwds[121] kflk
plainpwds[122] kfll
plainpwds[123] kflf
plainpwds[124] kffz
plainpwds[125] kffk
plainpwds[126] kffl
plainpwds[127] kfff
plainpwds[128] lzzz
plainpwds[129] lzzk
plainpwds[130] lzzl
plainpwds[131] lzzf
plainpwds[132] lzkz
plainpwds[133] lzkk
plainpwds[134] lzkl
plainpwds[135] lzkf
plainpwds[136] lzlz
plainpwds[137] lzlk
plainpwds[138] lzll
plainpwds[139] lzlf
plainpwds[140] lzfz
plainpwds[141] lzfk
plainpwds[142] lzfl
plainpwds[143] lzff
plainpwds[144] lkzz
plainpwds[145] lkzk
plainpwds[146] lkzl
plainpwds[147] lkzf
plainpwds[148] lkkz
plainpwds[149] lkkk
plainpwds[150] lkkl
plainpwds[151] lkkf
plainpwds[152] lklz
plainpwds[153] lklk
plainpwds[154] lkll
plainpwds[155] lklf
plainpwds[156] lkfz
plainpwds[157] lkfk
plainpwds[158] lkfl
plainpwds[159] lkff
plainpwds[160] llzz
plainpwds[161] llzk
plainpwds[162] llzl
plainpwds[163] llzf
plainpwds[164] llkz
plainpwds[165] llkk
plainpwds[166] llkl
plainpwds[167] llkf
plainpwds[168] lllz
plainpwds[169] lllk
plainpwds[170] llll
plainpwds[171] lllf
plainpwds[172] llfz
plainpwds[173] llfk
plainpwds[174] llfl
plainpwds[175] llff
plainpwds[176] lfzz
plainpwds[177] lfzk
plainpwds[178] lfzl
plainpwds[179] lfzf
plainpwds[180] lfkz
plainpwds[181] lfkk
plainpwds[182] lfkl
plainpwds[183] lfkf
plainpwds[184] lflz
plainpwds[185] lflk
plainpwds[186] lfll
plainpwds[187] lflf
plainpwds[188] lffz
plainpwds[189] lffk
plainpwds[190] lffl
plainpwds[191] lfff
plainpwds[192] fzzz
plainpwds[193] fzzk
plainpwds[194] fzzl
plainpwds[195] fzzf
plainpwds[196] fzkz
plainpwds[197] fzkk
plainpwds[198] fzkl
plainpwds[199] fzkf
plainpwds[200] fzlz
plainpwds[201] fzlk
plainpwds[202] fzll
plainpwds[203] fzlf
plainpwds[204] fzfz
plainpwds[205] fzfk
plainpwds[206] fzfl
plainpwds[207] fzff
plainpwds[208] fkzz
plainpwds[209] fkzk
plainpwds[210] fkzl
plainpwds[211] fkzf
plainpwds[212] fkkz
plainpwds[213] fkkk
plainpwds[214] fkkl
plainpwds[215] fkkf
plainpwds[216] fklz
plainpwds[217] fklk
plainpwds[218] fkll
plainpwds[219] fklf
plainpwds[220] fkfz
plainpwds[221] fkfk
plainpwds[222] fkfl
plainpwds[223] fkff
plainpwds[224] flzz
plainpwds[225] flzk
plainpwds[226] flzl
plainpwds[227] flzf
plainpwds[228] flkz
plainpwds[229] flkk
plainpwds[230] flkl
plainpwds[231] flkf
plainpwds[232] fllz
plainpwds[233] fllk
plainpwds[234] flll
plainpwds[235] fllf
plainpwds[236] flfz
plainpwds[237] flfk
plainpwds[238] flfl
plainpwds[239] flff
plainpwds[240] ffzz
plainpwds[241] ffzk
plainpwds[242] ffzl
plainpwds[243] ffzf
plainpwds[244] ffkz
plainpwds[245] ffkk
plainpwds[246] ffkl
plainpwds[247] ffkf
plainpwds[248] fflz
plainpwds[249] fflk
plainpwds[250] ffll
plainpwds[251] fflf
plainpwds[252] fffz
plainpwds[253] fffk
plainpwds[254] fffl
plainpwds[255] ffff
Master: second phase package has been received from Slave no. 1
plainpwds[120] kflz
plainpwds[121] kflk
plainpwds[122] kfll
plainpwds[123] kflf
plainpwds[124] kffz
plainpwds[125] kffk
plainpwds[126] kffl
plainpwds[127] kfff
plainpwds[128] lzzz
plainpwds[129] lzzk
plainpwds[130] lzzl
plainpwds[131] lzzf
plainpwds[132] lzkz
plainpwds[133] lzkk
plainpwds[134] lzkl
plainpwds[135] lzkf
plainpwds[136] lzlz
plainpwds[137] lzlk
plainpwds[138] lzll
plainpwds[139] lzlf
plainpwds[140] lzfz
plainpwds[141] lzfk
plainpwds[142] lzfl
plainpwds[143] lzff
plainpwds[144] lkzz
plainpwds[145] lkzk
plainpwds[146] lkzl
plainpwds[147] lkzf
plainpwds[148] lkkz
plainpwds[149] lkkk
plainpwds[150] lkkl
plainpwds[151] lkkf
plainpwds[152] lklz
plainpwds[153] lklk
plainpwds[154] lkll
plainpwds[155] lklf
plainpwds[156] lkfz
plainpwds[157] lkfk
plainpwds[158] lkfl
plainpwds[159] lkff
plainpwds[160] llzz
plainpwds[161] llzk
plainpwds[162] llzl
plainpwds[163] llzf
plainpwds[164] llkz
plainpwds[165] llkk
plainpwds[166] llkl
plainpwds[167] llkf
plainpwds[168] lllz
plainpwds[169] lllk
plainpwds[170] llll
plainpwds[171] lllf
plainpwds[172] llfz
plainpwds[173] llfk
plainpwds[174] llfl
plainpwds[175] llff
plainpwds[176] lfzz
plainpwds[177] lfzk
plainpwds[178] lfzl
plainpwds[179] lfzf
plainpwds[180] lfkz
plainpwds[181] lfkk
plainpwds[182] lfkl
plainpwds[183] lfkf
plainpwds[184] lflz
plainpwds[185] lflk
plainpwds[186] lfll
plainpwds[187] lflf
plainpwds[188] lffz
plainpwds[189] lffk
plainpwds[190] lffl
plainpwds[191] lfff
plainpwds[192] fzzz
plainpwds[193] fzzk
plainpwds[194] fzzl
plainpwds[195] fzzf
plainpwds[196] fzkz
plainpwds[197] fzkk
plainpwds[198] fzkl
plainpwds[199] fzkf
plainpwds[200] fzlz
plainpwds[201] fzlk
plainpwds[202] fzll
plainpwds[203] fzlf
plainpwds[204] fzfz
plainpwds[205] fzfk
plainpwds[206] fzfl
plainpwds[207] fzff
plainpwds[208] fkzz
plainpwds[209] fkzk
plainpwds[210] fkzl
plainpwds[211] fkzf
plainpwds[212] fkkz
plainpwds[213] fkkk
plainpwds[214] fkkl
plainpwds[215] fkkf
plainpwds[216] fklz
plainpwds[217] fklk
plainpwds[218] fkll
plainpwds[219] fklf
plainpwds[220] fkfz
plainpwds[221] fkfk
plainpwds[222] fkfl
plainpwds[223] fkff
plainpwds[224] flzz
plainpwds[225] flzk
plainpwds[226] flzl
plainpwds[227] flzf
plainpwds[228] flkz
plainpwds[229] flkk
plainpwds[230] flkl
plainpwds[231] flkf
plainpwds[232] fllz
plainpwds[233] fllk
plainpwds[234] flll
plainpwds[235] fllf
plainpwds[236] flfz
plainpwds[237] flfk
plainpwds[238] flfl
plainpwds[239] flff
plainpwds[240] ffzz
plainpwds[241] ffzk
plainpwds[242] ffzl
plainpwds[243] ffzf
plainpwds[244] ffkz
plainpwds[245] ffkk
plainpwds[246] ffkl
plainpwds[247] ffkf
plainpwds[248] fflz
plainpwds[249] fflk
plainpwds[250] ffll
plainpwds[251] fflf
plainpwds[252] fffz
plainpwds[253] fffk
plainpwds[254] fffl
plainpwds[255] ffff
Master: second phase package has been received from Slave no. 2
